{"photos":{"page":1,"pages":39879,"perpage":6,"total":"239271","photo":[{"id":"22664213550","owner":"62322566@N00","secret":"7b4e2360c0","server":"601","farm":1,"title":"Billy ...","ispublic":1,"isfriend":0,"isfamily":0},{"id":"22433873698","owner":"23849980@N07","secret":"bfb4a1d15b","server":"5694","farm":6,"title":"look left","ispublic":1,"isfriend":0,"isfamily":0},{"id":"22838653162","owner":"113108885@N07","secret":"0f8363d80a","server":"690","farm":1,"title":"Look @ Me","ispublic":1,"isfriend":0,"isfamily":0},{"id":"22664122320","owner":"30863410@N06","secret":"8b697d5f48","server":"5653","farm":6,"title":"Cementiri","ispublic":1,"isfriend":0,"isfamily":0},{"id":"22852045875","owner":"127651805@N02","secret":"35f784fb4b","server":"637","farm":1,"title":"Melancholic afternoons","ispublic":1,"isfriend":0,"isfamily":0},{"id":"22838205852","owner":"134646753@N05","secret":"e320328b4e","server":"5646","farm":6,"title":"Le chat  #bogota #shooting #catsofinstagram #cat #lighting #cinema #cinematography #cinematographer #iphone6  #apple @maccenter","ispublic":1,"isfriend":0,"isfamily":0}]},"stat":"ok"}